Bank Account Fraud Detection - COSC 421 Course Project – Bank Account Fraud Detection
…
bankfraud_data <- read_csv(storage_container_url)

Rows: 1000000 Columns: 32
── Column specification ────────────────────────────────────────────────────────
Delimiter: ","
chr  (5): payment_type, employment_status, housing_status, source, device_os
dbl (27): fraud_bool, income, name_email_similarity, prev_address_months_cou...

ℹ Use `spec()` to retrieve the full column specification for this data.
ℹ Specify the column types or set `show_col_types = FALSE` to quiet this message.

bankfraud_data

# A tibble: 1,000,000 × 32
   fraud_bool income name_email_similarity prev_address_months_count
        <dbl>  <dbl>                 <dbl>                     <dbl>
 1          0    0.3                 0.987                        -1
 2          0    0.8                 0.617                        -1
 3          0    0.8                 0.997                         9
 4          0    0.6                 0.475                        11
 5          0    0.9                 0.842                        -1
 6          0    0.6                 0.295                        -1
 7          0    0.2                 0.773                        22
 8          0    0.8                 0.154                        -1
 9          0    0.3                 0.524                        21
10          0    0.8                 0.834                        -1
# ℹ 999,990 more rows
# ℹ 28 more variables: current_address_months_count <dbl>, customer_age <dbl>,
#   days_since_request <dbl>, intended_balcon_amount <dbl>, payment_type <chr>,
#   zip_count_4w <dbl>, velocity_6h <dbl>, velocity_24h <dbl>,
#   velocity_4w <dbl>, bank_branch_count_8w <dbl>,
#   date_of_birth_distinct_emails_4w <dbl>, employment_status <chr>,
#   credit_risk_score <dbl>, email_is_free <dbl>, housing_status <chr>, …
…
bankfraud_data <- bankfraud_data[!duplicated(bankfraud_data), ]
bankfraud_data

# A tibble: 1,000,000 × 32
   fraud_bool income name_email_similarity prev_address_months_count
        <dbl>  <dbl>                 <dbl>                     <dbl>
 1          0    0.3                 0.987                        -1
 2          0    0.8                 0.617                        -1
 3          0    0.8                 0.997                         9
 4          0    0.6                 0.475                        11
 5          0    0.9                 0.842                        -1
 6          0    0.6                 0.295                        -1
 7          0    0.2                 0.773                        22
 8          0    0.8                 0.154                        -1
 9          0    0.3                 0.524                        21
10          0    0.8                 0.834                        -1
# ℹ 999,990 more rows
# ℹ 28 more variables: current_address_months_count <dbl>, customer_age <dbl>,
#   days_since_request <dbl>, intended_balcon_amount <dbl>, payment_type <chr>,
#   zip_count_4w <dbl>, velocity_6h <dbl>, velocity_24h <dbl>,
#   velocity_4w <dbl>, bank_branch_count_8w <dbl>,
#   date_of_birth_distinct_emails_4w <dbl>, employment_status <chr>,
#   credit_risk_score <dbl>, email_is_free <dbl>, housing_status <chr>, …

No duplicates identified, so we can proceed with PCA and feature engineering. Removing the Device OS columns and the source columns as they are not helpful predictors in predicting bank fraud. The character data type columns are converted to numeric types for making PCA possible.

bankfraud_data <- bankfraud_data[, -c(26, 28)]
bankfraud_data <- bankfraud_data %>% mutate(across(where(is.character), ~ as.numeric(as.factor(.))))
bankfraud_data

# A tibble: 1,000,000 × 30
   fraud_bool income name_email_similarity prev_address_months_count
        <dbl>  <dbl>                 <dbl>                     <dbl>
 1          0    0.3                 0.987                        -1
 2          0    0.8                 0.617                        -1
 3          0    0.8                 0.997                         9
 4          0    0.6                 0.475                        11
 5          0    0.9                 0.842                        -1
 6          0    0.6                 0.295                        -1
 7          0    0.2                 0.773                        22
 8          0    0.8                 0.154                        -1
 9          0    0.3                 0.524                        21
10          0    0.8                 0.834                        -1
# ℹ 999,990 more rows
# ℹ 26 more variables: current_address_months_count <dbl>, customer_age <dbl>,
#   days_since_request <dbl>, intended_balcon_amount <dbl>, payment_type <dbl>,
#   zip_count_4w <dbl>, velocity_6h <dbl>, velocity_24h <dbl>,
#   velocity_4w <dbl>, bank_branch_count_8w <dbl>,
#   date_of_birth_distinct_emails_4w <dbl>, employment_status <dbl>,
#   credit_risk_score <dbl>, email_is_free <dbl>, housing_status <dbl>, …
…
Final dataset with most relevant features for predicting fraud.

Rows with missing (-1) values in the bank_months_count and current_address_months_count are removed as these are considered missing values. The days_since_request column is removed due to having unreliable data - the data is supposed to range from 0 to 78 days, however the majority of the entries are less than one. The negative values from velocity_6h are also removed as they are uninterpretable in the context of the velocity of applications.

bankfraud_data <- bankfraud_data[, c(selected_features)]
bankfraud_data %>% relocate(fraud_bool)

# A tibble: 1,000,000 × 14
   fraud_bool payment_type keep_alive_session foreign_request days_since_request
        <dbl>        <dbl>              <dbl>           <dbl>              <dbl>
 1          0            1                  1               0            0.00674
 2          0            4                  1               0            0.0101 
 3          0            2                  0               0            0.0123 
 4          0            2                  1               0            0.00699
 5          0            1                  0               0            5.74   
 6          0            4                  1               0            0.0242 
 7          0            2                  1               0            0.00692
 8          0            2                  1               0            0.0451 
 9          0            2                  1               0            0.0352 
10          0            4                  1               0            0.0172 
# ℹ 999,990 more rows
# ℹ 9 more variables: email_is_free <dbl>, bank_branch_count_8w <dbl>,
#   zip_count_4w <dbl>, name_email_similarity <dbl>, bank_months_count <dbl>,
#   housing_status <dbl>, velocity_6h <dbl>, phone_home_valid <dbl>,
#   current_address_months_count <dbl>

bankfraud_data

# A tibble: 1,000,000 × 14
   payment_type keep_alive_session foreign_request days_since_request
          <dbl>              <dbl>           <dbl>              <dbl>
 1            1                  1               0            0.00674
 2            4                  1               0            0.0101 
 3            2                  0               0            0.0123 
 4            2                  1               0            0.00699
 5            1                  0               0            5.74   
 6            4                  1               0            0.0242 
 7            2                  1               0            0.00692
 8            2                  1               0            0.0451 
 9            2                  1               0            0.0352 
10            4                  1               0            0.0172 
# ℹ 999,990 more rows
# ℹ 10 more variables: email_is_free <dbl>, fraud_bool <dbl>,
#   bank_branch_count_8w <dbl>, zip_count_4w <dbl>,
#   name_email_similarity <dbl>, bank_months_count <dbl>, housing_status <dbl>,
#   velocity_6h <dbl>, phone_home_valid <dbl>,
#   current_address_months_count <dbl>
…
        data_sample[[col]][row_id_1] == data_sample[[col]][row_id_2]
      })
    ])
  ) %>%
  filter(length(edge_type) > 0) %>%
  unnest(edge_type) %>%
  ungroup() %>%
  mutate(
    node_id_1 = data_sample$node_id[row_id_1],
    node_id_2 = data_sample$node_id[row_id_2]
  ) %>%
  select(node_id_1, node_id_2, edge_type)
print(edges_list)

# A tibble: 3,617 × 3
   node_id_1 node_id_2 edge_type                   
       <int>     <int> <chr>                       
 1    321846    204902 bank_branch_count_8w        
 2    321846    204902 zip_count_4w                
 3    321846    204902 current_address_months_count
 4    321846     83299 payment_type                
 5    321846     83299 bank_branch_count_8w        
 6    321846     83299 bank_months_count           
 7    321846     83299 housing_status              
 8    204902     83299 bank_branch_count_8w        
 9    204902     83299 velocity_6h                 
10    321846    536626 bank_branch_count_8w        
# ℹ 3,607 more rows
…
